{
  "annotations": {
    "list": [
      {
        "builtIn": 1,
        "datasource": "-- Grafana --",
        "enable": true,
        "hide": true,
        "iconColor": "rgba(0, 211, 255, 1)",
        "name": "Annotations & Alerts",
        "type": "dashboard"
      }
    ]
  },
  "description": "General stats dashboard with node selector, uses metrics from wmi_exporter",
  "editable": true,
  "gnetId": 2129,
  "graphTooltip": 1,
  "id": 1,
  "iteration": 1564540643569,
  "links": [],
  "panels": [
    {
      "aliasColors": {
        "idle": "#0A50A1"
      },
      "bars": false,
      "dashLength": 10,
      "dashes": false,
      "datasource": "Prometheus",
      "fill": 10,
      "gridPos": {
        "h": 9,
        "w": 24,
        "x": 0,
        "y": 0
      },
      "hideTimeOverride": false,
      "id": 4,
      "legend": {
        "alignAsTable": true,
        "avg": false,
        "current": true,
        "max": true,
        "min": false,
        "rightSide": true,
        "show": true,
        "total": false,
        "values": true
      },
      "lines": true,
      "linewidth": 0,
      "links": [],
      "nullPointMode": "null as zero",
      "options": {},
      "percentage": false,
      "pointradius": 5,
      "points": false,
      "renderer": "flot",
      "seriesOverrides": [],
      "spaceLength": 10,
      "stack": true,
      "steppedLine": false,
      "targets": [
        {
          "application": {
            "filter": ""
          },
          "expr": "sum by (mode) (rate(wmi_cpu_time_total{instance=~\"$server\"}[5m]))",
          "format": "time_series",
          "functions": [],
          "group": {
            "filter": ""
          },
          "hide": false,
          "host": {
            "filter": ""
          },
          "intervalFactor": 1,
          "item": {
            "filter": ""
          },
          "legendFormat": "{{mode}}",
          "metric": "mysql_global_status_questions",
          "mode": 0,
          "options": {
            "showDisabledItems": false
          },
          "refId": "A",
          "step": 20
        }
      ],
      "thresholds": [],
      "timeFrom": null,
      "timeRegions": [],
      "timeShift": null,
      "title": "CPU load",
      "tooltip": {
        "shared": false,
        "sort": 0,
        "value_type": "individual"
      },
      "type": "graph",
      "xaxis": {
        "buckets": null,
        "mode": "time",
        "name": null,
        "show": true,
        "values": []
      },
      "yaxes": [
        {
          "format": "short",
          "label": null,
          "logBase": 1,
          "max": null,
          "min": null,
          "show": true
        },
        {
          "format": "short",
          "label": null,
          "logBase": 1,
          "max": null,
          "min": null,
          "show": true
        }
      ],
      "yaxis": {
        "align": false,
        "alignLevel": null
      }
    },
    {
      "aliasColors": {},
      "bars": false,
      "dashLength": 10,
      "dashes": false,
      "datasource": "Prometheus",
      "fill": 1,
      "gridPos": {
        "h": 7,
        "w": 10,
        "x": 0,
        "y": 9
      },
      "hideTimeOverride": false,
      "id": 10,
      "legend": {
        "alignAsTable": true,
        "avg": false,
        "current": true,
        "max": true,
        "min": false,
        "rightSide": true,
        "show": true,
        "total": false,
        "values": true
      },
      "lines": true,
      "linewidth": 1,
      "links": [],
      "nullPointMode": "null as zero",
      "options": {},
      "percentage": false,
      "pointradius": 5,
      "points": false,
      "renderer": "flot",
      "seriesOverrides": [],
      "spaceLength": 10,
      "stack": false,
      "steppedLine": false,
      "targets": [
        {
          "application": {
            "filter": ""
          },
          "expr": "irate(wmi_net_packets_outbound_discarded{instance=~\"$server\", nic!~\"isatap.+\"}[$interval]) + irate(wmi_net_packets_outbound_errors{instance=~\"$server\"}[$interval])",
          "functions": [],
          "group": {
            "filter": ""
          },
          "hide": false,
          "host": {
            "filter": ""
          },
          "intervalFactor": 1,
          "item": {
            "filter": ""
          },
          "legendFormat": "Sent {{nic}}",
          "metric": "mysql_global_status_questions",
          "mode": 0,
          "options": {
            "showDisabledItems": false
          },
          "refId": "B",
          "step": 15
        },
        {
          "application": {
            "filter": ""
          },
          "expr": "irate(wmi_net_packets_received_discarded{instance=~\"$server\", nic!~\"isatap.+\"}[$interval]) + irate(wmi_net_packets_received_errors{instance=~\"$server\"}[$interval])",
          "functions": [],
          "group": {
            "filter": ""
          },
          "hide": false,
          "host": {
            "filter": ""
          },
          "intervalFactor": 1,
          "item": {
            "filter": ""
          },
          "legendFormat": "Received {{nic}}",
          "metric": "mysql_global_status_questions",
          "mode": 0,
          "options": {
            "showDisabledItems": false
          },
          "refId": "A",
          "step": 15
        }
      ],
      "thresholds": [],
      "timeFrom": null,
      "timeRegions": [],
      "timeShift": null,
      "title": "Network discarded/error packets",
      "tooltip": {
        "shared": false,
        "sort": 2,
        "value_type": "individual"
      },
      "type": "graph",
      "xaxis": {
        "buckets": null,
        "mode": "time",
        "name": null,
        "show": true,
        "values": []
      },
      "yaxes": [
        {
          "format": "short",
          "label": null,
          "logBase": 1,
          "max": null,
          "min": null,
          "show": true
        },
        {
          "format": "short",
          "label": null,
          "logBase": 1,
          "max": null,
          "min": null,
          "show": true
        }
      ],
      "yaxis": {
        "align": false,
        "alignLevel": null
      }
    },
    {
      "aliasColors": {},
      "bars": false,
      "dashLength": 10,
      "dashes": false,
      "datasource": "Prometheus",
      "fill": 1,
      "gridPos": {
        "h": 7,
        "w": 14,
        "x": 10,
        "y": 9
      },
      "hideTimeOverride": false,
      "id": 11,
      "legend": {
        "alignAsTable": true,
        "avg": false,
        "current": true,
        "max": true,
        "min": false,
        "rightSide": false,
        "show": true,
        "total": false,
        "values": true
      },
      "lines": true,
      "linewidth": 1,
      "links": [],
      "nullPointMode": "null as zero",
      "options": {},
      "percentage": false,
      "pointradius": 5,
      "points": false,
      "renderer": "flot",
      "seriesOverrides": [],
      "spaceLength": 10,
      "stack": false,
      "steppedLine": false,
      "targets": [
        {
          "application": {
            "filter": ""
          },
          "expr": "rate(wmi_net_bytes_sent_total{instance=~\"$server\"}[$interval]) >0",
          "format": "time_series",
          "functions": [],
          "group": {
            "filter": ""
          },
          "hide": false,
          "host": {
            "filter": ""
          },
          "intervalFactor": 1,
          "item": {
            "filter": ""
          },
          "legendFormat": "Sent {{nic}}",
          "metric": "mysql_global_status_questions",
          "mode": 0,
          "options": {
            "showDisabledItems": false
          },
          "refId": "B",
          "step": 10
        },
        {
          "application": {
            "filter": ""
          },
          "expr": "- rate(wmi_net_bytes_received_total{instance=~\"$server\"}[$interval]) <0",
          "format": "time_series",
          "functions": [],
          "group": {
            "filter": ""
          },
          "hide": false,
          "host": {
            "filter": ""
          },
          "intervalFactor": 1,
          "item": {
            "filter": ""
          },
          "legendFormat": "Received {{nic}}",
          "metric": "mysql_global_status_questions",
          "mode": 0,
          "options": {
            "showDisabledItems": false
          },
          "refId": "A",
          "step": 10
        }
      ],
      "thresholds": [],
      "timeFrom": null,
      "timeRegions": [],
      "timeShift": null,
      "title": "Network",
      "tooltip": {
        "shared": true,
        "sort": 2,
        "value_type": "individual"
      },
      "type": "graph",
      "xaxis": {
        "buckets": null,
        "mode": "time",
        "name": null,
        "show": true,
        "values": []
      },
      "yaxes": [
        {
          "format": "short",
          "label": null,
          "logBase": 1,
          "max": null,
          "min": null,
          "show": true
        },
        {
          "format": "short",
          "label": null,
          "logBase": 1,
          "max": null,
          "min": null,
          "show": true
        }
      ],
      "yaxis": {
        "align": false,
        "alignLevel": null
      }
    },
    {
      "aliasColors": {},
      "bars": false,
      "dashLength": 10,
      "dashes": false,
      "datasource": "Prometheus",
      "fill": 2,
      "gridPos": {
        "h": 7,
        "w": 8,
        "x": 0,
        "y": 16
      },
      "hideTimeOverride": false,
      "id": 8,
      "legend": {
        "alignAsTable": true,
        "avg": false,
        "current": true,
        "hideZero": false,
        "max": true,
        "min": false,
        "rightSide": false,
        "show": true,
        "total": false,
        "values": true
      },
      "lines": true,
      "linewidth": 1,
      "links": [],
      "nullPointMode": "null as zero",
      "options": {},
      "percentage": false,
      "pointradius": 5,
      "points": false,
      "renderer": "flot",
      "seriesOverrides": [],
      "spaceLength": 10,
      "stack": false,
      "steppedLine": false,
      "targets": [
        {
          "application": {
            "filter": ""
          },
          "expr": "irate(wmi_logical_disk_write_bytes_total{instance=~\"$server\", volume !~\"HarddiskVolume.+\"}[$interval])",
          "format": "time_series",
          "functions": [],
          "group": {
            "filter": ""
          },
          "hide": false,
          "host": {
            "filter": ""
          },
          "intervalFactor": 1,
          "item": {
            "filter": ""
          },
          "legendFormat": "Write {{volume}}",
          "metric": "mysql_global_status_questions",
          "mode": 0,
          "options": {
            "showDisabledItems": false
          },
          "refId": "A",
          "step": 20
        },
        {
          "application": {
            "filter": ""
          },
          "expr": "- irate(wmi_logical_disk_read_bytes_total{instance=~\"$server\", volume !~\"HarddiskVolume.+\"}[$interval])",
          "format": "time_series",
          "functions": [],
          "group": {
            "filter": ""
          },
          "hide": false,
          "host": {
            "filter": ""
          },
          "intervalFactor": 1,
          "item": {
            "filter": ""
          },
          "legendFormat": "Read {{volume}}",
          "metric": "mysql_global_status_questions",
          "mode": 0,
          "options": {
            "showDisabledItems": false
          },
          "refId": "B",
          "step": 20
        }
      ],
      "thresholds": [],
      "timeFrom": null,
      "timeRegions": [],
      "timeShift": null,
      "title": "Hard drive load",
      "tooltip": {
        "shared": false,
        "sort": 0,
        "value_type": "individual"
      },
      "type": "graph",
      "xaxis": {
        "buckets": null,
        "mode": "time",
        "name": null,
        "show": true,
        "values": []
      },
      "yaxes": [
        {
          "format": "decbytes",
          "label": null,
          "logBase": 1,
          "max": null,
          "min": null,
          "show": true
        },
        {
          "format": "short",
          "label": null,
          "logBase": 1,
          "max": null,
          "min": null,
          "show": true
        }
      ],
      "yaxis": {
        "align": false,
        "alignLevel": null
      }
    },
    {
      "aliasColors": {},
      "bars": false,
      "dashLength": 10,
      "dashes": false,
      "datasource": "Prometheus",
      "fill": 1,
      "gridPos": {
        "h": 5,
        "w": 8,
        "x": 8,
        "y": 16
      },
      "hideTimeOverride": false,
      "id": 9,
      "legend": {
        "alignAsTable": true,
        "avg": false,
        "current": true,
        "max": true,
        "min": false,
        "rightSide": true,
        "show": true,
        "total": false,
        "values": true
      },
      "lines": true,
      "linewidth": 1,
      "links": [],
      "nullPointMode": "null as zero",
      "options": {},
      "percentage": false,
      "pointradius": 5,
      "points": false,
      "renderer": "flot",
      "seriesOverrides": [],
      "spaceLength": 10,
      "stack": false,
      "steppedLine": false,
      "targets": [
        {
          "application": {
            "filter": ""
          },
          "expr": "rate(wmi_logical_disk_split_ios_total{instance=~\"$server\", volume !~\"HarddiskVolume.+\"}[30s])",
          "functions": [],
          "group": {
            "filter": ""
          },
          "hide": false,
          "host": {
            "filter": ""
          },
          "intervalFactor": 1,
          "item": {
            "filter": ""
          },
          "legendFormat": "i/o {{volume}}",
          "metric": "mysql_global_status_questions",
          "mode": 0,
          "options": {
            "showDisabledItems": false
          },
          "refId": "A",
          "step": 20
        }
      ],
      "thresholds": [],
      "timeFrom": null,
      "timeRegions": [],
      "timeShift": null,
      "title": "Hard disk i/o ops total",
      "tooltip": {
        "shared": false,
        "sort": 0,
        "value_type": "individual"
      },
      "type": "graph",
      "xaxis": {
        "buckets": null,
        "mode": "time",
        "name": null,
        "show": true,
        "values": []
      },
      "yaxes": [
        {
          "format": "short",
          "label": null,
          "logBase": 1,
          "max": null,
          "min": null,
          "show": true
        },
        {
          "format": "short",
          "label": null,
          "logBase": 1,
          "max": null,
          "min": null,
          "show": true
        }
      ],
      "yaxis": {
        "align": false,
        "alignLevel": null
      }
    },
    {
      "datasource": "Prometheus",
      "gridPos": {
        "h": 5,
        "w": 8,
        "x": 16,
        "y": 16
      },
      "hideTimeOverride": false,
      "id": 15,
      "interval": "",
      "links": [],
      "options": {
        "fieldOptions": {
          "calcs": [
            "mean"
          ],
          "defaults": {
            "max": 100,
            "min": 0
          },
          "mappings": [],
          "override": {},
          "thresholds": [
            {
              "color": "green",
              "index": 0,
              "value": null
            },
            {
              "color": "red",
              "index": 1,
              "value": 80
            }
          ],
          "values": false
        },
        "orientation": "auto",
        "showThresholdLabels": false,
        "showThresholdMarkers": true
      },
      "pluginVersion": "6.2.5",
      "targets": [
        {
          "application": {
            "filter": ""
          },
          "expr": "wmi_logical_disk_free_bytes{instance=~\"$server\", volume !~\"HarddiskVolume.+\"}",
          "format": "time_series",
          "functions": [],
          "group": {
            "filter": ""
          },
          "hide": false,
          "host": {
            "filter": ""
          },
          "intervalFactor": 1,
          "item": {
            "filter": ""
          },
          "legendFormat": "free {{volume}}",
          "metric": "mysql_global_status_questions",
          "mode": 0,
          "options": {
            "showDisabledItems": false
          },
          "refId": "A",
          "step": 20
        }
      ],
      "timeFrom": null,
      "timeShift": null,
      "title": "Hard disk free space",
      "type": "gauge"
    },
    {
      "aliasColors": {},
      "bars": false,
      "dashLength": 10,
      "dashes": false,
      "datasource": "Prometheus",
      "fill": 1,
      "gridPos": {
        "h": 6,
        "w": 24,
        "x": 0,
        "y": 23
      },
      "hideTimeOverride": false,
      "id": 14,
      "legend": {
        "alignAsTable": true,
        "avg": false,
        "current": true,
        "max": true,
        "min": false,
        "rightSide": true,
        "show": true,
        "total": false,
        "values": true
      },
      "lines": true,
      "linewidth": 1,
      "links": [],
      "nullPointMode": "null as zero",
      "options": {},
      "percentage": false,
      "pointradius": 5,
      "points": false,
      "renderer": "flot",
      "seriesOverrides": [],
      "spaceLength": 10,
      "stack": false,
      "steppedLine": false,
      "targets": [
        {
          "application": {
            "filter": ""
          },
          "expr": "wmi_os_virtual_memory_bytes{instance=~\"$server\"}",
          "functions": [],
          "group": {
            "filter": ""
          },
          "hide": false,
          "host": {
            "filter": ""
          },
          "intervalFactor": 1,
          "item": {
            "filter": ""
          },
          "legendFormat": "Virtual memory",
          "metric": "mysql_global_status_questions",
          "mode": 0,
          "options": {
            "showDisabledItems": false
          },
          "refId": "A",
          "step": 5
        },
        {
          "application": {
            "filter": ""
          },
          "expr": "wmi_cs_physical_memory_bytes{instance=~\"$server\"}",
          "functions": [],
          "group": {
            "filter": ""
          },
          "hide": false,
          "host": {
            "filter": ""
          },
          "intervalFactor": 1,
          "item": {
            "filter": ""
          },
          "legendFormat": "Physical memory",
          "metric": "mysql_global_status_questions",
          "mode": 0,
          "options": {
            "showDisabledItems": false
          },
          "refId": "B",
          "step": 5
        },
        {
          "application": {
            "filter": ""
          },
          "expr": "wmi_os_physical_memory_free_bytes{instance=~\"$server\"}",
          "functions": [],
          "group": {
            "filter": ""
          },
          "hide": false,
          "host": {
            "filter": ""
          },
          "intervalFactor": 1,
          "item": {
            "filter": ""
          },
          "legendFormat": "Free physical memory",
          "metric": "mysql_global_status_questions",
          "mode": 0,
          "options": {
            "showDisabledItems": false
          },
          "refId": "C",
          "step": 5
        }
      ],
      "thresholds": [],
      "timeFrom": null,
      "timeRegions": [],
      "timeShift": null,
      "title": "Memory",
      "tooltip": {
        "shared": false,
        "sort": 0,
        "value_type": "individual"
      },
      "type": "graph",
      "xaxis": {
        "buckets": null,
        "mode": "time",
        "name": null,
        "show": true,
        "values": []
      },
      "yaxes": [
        {
          "format": "decbytes",
          "label": null,
          "logBase": 1,
          "max": null,
          "min": null,
          "show": true
        },
        {
          "format": "short",
          "label": null,
          "logBase": 1,
          "max": null,
          "min": null,
          "show": true
        }
      ],
      "yaxis": {
        "align": false,
        "alignLevel": null
      }
    }
  ],
  "refresh": false,
  "schemaVersion": 18,
  "style": "dark",
  "tags": [
    "windows",
    "wmi_exporter",
    "prometheus"
  ],
  "templating": {
    "list": [
      {
        "auto": false,
        "auto_count": 500,
        "auto_min": "30s",
        "current": {
          "text": "60s",
          "value": "60s"
        },
        "hide": 2,
        "label": "Interval",
        "name": "interval",
        "options": [
          {
            "selected": true,
            "text": "60s",
            "value": "60s"
          }
        ],
        "query": "60s",
        "refresh": 2,
        "skipUrlSync": false,
        "type": "interval"
      },
      {
        "allValue": null,
        "current": {
          "text": "177.55.119.90:5000",
          "value": "177.55.119.90:5000"
        },
        "datasource": "Prometheus",
        "definition": "label_values(wmi_exporter_build_info, instance)",
        "hide": 0,
        "includeAll": false,
        "label": "Server",
        "multi": false,
        "name": "server",
        "options": [],
        "query": "label_values(wmi_exporter_build_info, instance)",
        "refresh": 1,
        "regex": "",
        "skipUrlSync": false,
        "sort": 0,
        "tagValuesQuery": "",
        "tags": [],
        "tagsQuery": "",
        "type": "query",
        "useTags": false
      }
    ]
  },
  "time": {
    "from": "now-3h",
    "to": "now"
  },
  "timepicker": {
    "refresh_intervals": [
      "5s",
      "10s",
      "30s",
      "1m",
      "5m",
      "15m",
      "30m",
      "1h",
      "2h",
      "1d"
    ],
    "time_options": [
      "5m",
      "15m",
      "1h",
      "6h",
      "12h",
      "24h",
      "2d",
      "7d",
      "30d"
    ]
  },
  "timezone": "browser",
  "title": "Windows Node",
  "uid": "eaKeJnvZz",
  "version": 5
}